Lab 1: Census Data Quality for Policy Decisions – Shubhanga Satyal-MUSA 5080 Portfolio
…
tibble(ca_county_reliability)

# A tibble: 58 × 7
   County       Median Household Inc…¹ Median HH Income Mar…² `Total Population`
   <chr>                         <dbl>                  <dbl>              <dbl>
 1 Alameda                      122488                   1231            1663823
 2 Alpine                       101125                  17442               1515
 3 Amador                        74853                   6048              40577
 4 Butte                         66085                   2261             213605
 5 Calaveras                     77526                   3875              45674
 6 Colusa                        69619                   5745              21811
 7 Contra Costa                 120020                   1496            1162648
 8 Del Norte                     61149                   4376              27462
 9 El Dorado                     99246                   3330             191713
10 Fresno                        67756                    967            1008280
# ℹ 48 more rows
# ℹ abbreviated names: ¹​`Median Household Income`,
#   ²​`Median HH Income Margin of Error`
# ℹ 3 more variables: moe_pct <dbl>, category <chr>, flag <chr>
…
county_levelcode <- c("001","003","005")

selected_counties_data <- get_acs(
  geography = "tract",
  variables = race_variables,
  county = county_levelcode,
  state = my_state,
  year = 2022,
  survey = "acs5",
  output = "wide"
)

tibble(selected_counties_data)

# A tibble: 390 × 10
   GEOID       NAME         `White AloneE` `White AloneM` Black/African Americ…¹
   <chr>       <chr>                 <dbl>          <dbl>                  <dbl>
 1 06001400100 Census Trac…           2255            444                    171
 2 06001400200 Census Trac…           1500            219                     38
 3 06001400300 Census Trac…           3290            378                    529
 4 06001400400 Census Trac…           2740            606                    499
 5 06001400500 Census Trac…           1638            262                    993
 6 06001400600 Census Trac…            905            183                    539
 7 06001400700 Census Trac…           2293            422                   1101
 8 06001400800 Census Trac…           2228            462                    643
 9 06001400900 Census Trac…           1052            266                    692
10 06001401000 Census Trac…           2095            531                   1478
# ℹ 380 more rows
# ℹ abbreviated name: ¹​`Black/African AmericanE`
# ℹ 5 more variables: `Black/African AmericanM` <dbl>,
#   `Hispanic/LatinoE` <dbl>, `Hispanic/LatinoM` <dbl>,
#   `Total PopulationE` <dbl>, `Total PopulationM` <dbl>
…
    ) %>%
  # Create percentages for white, Black, and Hispanic populations
  mutate(`Percentage of White, Black and Hispanic Populations`= pct_white + pct_Black + pct_Hisp, 
 # Add readable tract and county name columns using str_extract() or similar
         Tract =  str_extract(NAME, "[0-9.]+"),
         County = str_extract(NAME, "[A-Za-z ]+ County"))%>% 
  select(County, Tract,
         `White %` = "pct_white",
         `Black %`= "pct_Black",
         `Hispanic or Latino %`="pct_Hisp", 
         `Percentage of White, Black and Hispanic Populations`,
        )
tibble(percentage_eachgroup)

# A tibble: 390 × 6
   County            Tract `White %` `Black %` `Hispanic or Latino %`
   <chr>             <chr>     <dbl>     <dbl>                  <dbl>
 1 " Alameda County" 4001       69.0      5.23                   5.11
 2 " Alameda County" 4002       69.9      1.77                   7.41
 3 " Alameda County" 4003       58.6      9.41                  10.1 
 4 " Alameda County" 4004       64.0     11.7                    7.15
 5 " Alameda County" 4005       41.5     25.1                   15.5 
 6 " Alameda County" 4006       44.0     26.2                    6.51
 7 " Alameda County" 4007       48.2     23.1                    9.88
 8 " Alameda County" 4008       51.4     14.8                    8.93
 9 " Alameda County" 4009       37.0     24.3                   18.7 
10 " Alameda County" 4010       33.4     23.5                   22.1 
# ℹ 380 more rows
# ℹ 1 more variable:
#   `Percentage of White, Black and Hispanic Populations` <dbl>
…
